<svg width="48" height="48" viewBox="0 0 48 48" fill="none" xmlns="http://www.w3.org/2000/svg">
<path d="M35 48H3.00002C2.20437 48 1.44131 47.6839 0.878696 47.1213C0.316087 46.5587 1.67143e-05 45.7957 1.67143e-05 45V9.00002C-0.000744179 8.86841 0.0244809 8.73795 0.0742455 8.61611C0.12401 8.49427 0.197335 8.38346 0.290017 8.29002L8.29002 0.290017C8.38346 0.197335 8.49427 0.12401 8.61611 0.0742455C8.73795 0.0244809 8.86841 -0.000744179 9.00002 1.67143e-05H35C35.7957 1.67143e-05 36.5587 0.316087 37.1213 0.878696C37.6839 1.44131 38 2.20437 38 3.00002V9.00002C38 9.26523 37.8947 9.51959 37.7071 9.70712C37.5196 9.89466 37.2652 10 37 10C36.7348 10 36.4804 9.89466 36.2929 9.70712C36.1054 9.51959 36 9.26523 36 9.00002V3.00002C36 2.7348 35.8947 2.48045 35.7071 2.29291C35.5196 2.10537 35.2652 2.00002 35 2.00002H9.41002L2.00002 9.41002V45C2.00002 45.2652 2.10537 45.5196 2.29291 45.7071C2.48045 45.8947 2.7348 46 3.00002 46H35C35.2652 46 35.5196 45.8947 35.7071 45.7071C35.8947 45.5196 36 45.2652 36 45C36 44.7348 36.1054 44.4804 36.2929 44.2929C36.4804 44.1054 36.7348 44 37 44C37.2652 44 37.5196 44.1054 37.7071 44.2929C37.8947 44.4804 38 44.7348 38 45C38 45.7957 37.6839 46.5587 37.1213 47.1213C36.5587 47.6839 35.7957 48 35 48Z" fill="#282828"/>
<path d="M9.00002 10H1.00002C0.734801 10 0.480447 9.89466 0.29291 9.70712C0.105374 9.51959 1.67143e-05 9.26523 1.67143e-05 9.00002C1.67143e-05 8.7348 0.105374 8.48045 0.29291 8.29291C0.480447 8.10537 0.734801 8.00002 1.00002 8.00002H8.00002V1.00002C8.00002 0.734801 8.10537 0.480447 8.29291 0.29291C8.48045 0.105374 8.7348 1.67143e-05 9.00002 1.67143e-05C9.26523 1.67143e-05 9.51959 0.105374 9.70712 0.29291C9.89466 0.480447 10 0.734801 10 1.00002V9.00002C10 9.26523 9.89466 9.51959 9.70712 9.70712C9.51959 9.89466 9.26523 10 9.00002 10Z" fill="#282828"/>
<path d="M47 34H13C12.7348 34 12.4804 33.8947 12.2929 33.7071C12.1054 33.5196 12 33.2652 12 33V13C12 12.7348 12.1054 12.4804 12.2929 12.2929C12.4804 12.1054 12.7348 12 13 12H47C47.2652 12 47.5196 12.1054 47.7071 12.2929C47.8947 12.4804 48 12.7348 48 13V33C48 33.2652 47.8947 33.5196 47.7071 33.7071C47.5196 33.8947 47.2652 34 47 34ZM14 32H46V14H14V32Z" fill="#282828"/>
<path d="M39 30H36C35.7348 30 35.4804 29.8947 35.2929 29.7071C35.1054 29.5196 35 29.2652 35 29C35 28.7348 35.1054 28.4804 35.2929 28.2929C35.4804 28.1054 35.7348 28 36 28H38.1C38.296 27.0391 38.7702 26.1571 39.4636 25.4636C40.1571 24.7702 41.0391 24.296 42 24.1V21.9C41.0391 21.704 40.1571 21.2298 39.4636 20.5364C38.7702 19.843 38.296 18.9609 38.1 18H36C35.7348 18 35.4804 17.8947 35.2929 17.7071C35.1054 17.5196 35 17.2652 35 17C35 16.7348 35.1054 16.4804 35.2929 16.2929C35.4804 16.1054 35.7348 16 36 16H39C39.2652 16 39.5196 16.1054 39.7071 16.2929C39.8947 16.4804 40 16.7348 40 17C40 17.7957 40.3161 18.5587 40.8787 19.1213C41.4413 19.6839 42.2044 20 43 20C43.2652 20 43.5196 20.1054 43.7071 20.2929C43.8947 20.4804 44 20.7348 44 21V25C44 25.2652 43.8947 25.5196 43.7071 25.7071C43.5196 25.8947 43.2652 26 43 26C42.2044 26 41.4413 26.3161 40.8787 26.8787C40.3161 27.4413 40 28.2044 40 29C40 29.2652 39.8947 29.5196 39.7071 29.7071C39.5196 29.8947 39.2652 30 39 30Z" fill="#282828"/>
<path d="M24 30H21C20.7348 30 20.4804 29.8947 20.2929 29.7071C20.1054 29.5196 20 29.2652 20 29C20 28.2044 19.6839 27.4413 19.1213 26.8787C18.5587 26.3161 17.7957 26 17 26C16.7348 26 16.4804 25.8947 16.2929 25.7071C16.1054 25.5196 16 25.2652 16 25V21C16 20.7348 16.1054 20.4804 16.2929 20.2929C16.4804 20.1054 16.7348 20 17 20C17.7957 20 18.5587 19.6839 19.1213 19.1213C19.6839 18.5587 20 17.7957 20 17C20 16.7348 20.1054 16.4804 20.2929 16.2929C20.4804 16.1054 20.7348 16 21 16H24C24.2652 16 24.5196 16.1054 24.7071 16.2929C24.8947 16.4804 25 16.7348 25 17C25 17.2652 24.8947 17.5196 24.7071 17.7071C24.5196 17.8947 24.2652 18 24 18H21.9C21.704 18.9609 21.2298 19.843 20.5364 20.5364C19.843 21.2298 18.9609 21.704 18 21.9V24.1C18.9609 24.296 19.843 24.7702 20.5364 25.4636C21.2298 26.1571 21.704 27.0391 21.9 28H24C24.2652 28 24.5196 28.1054 24.7071 28.2929C24.8947 28.4804 25 28.7348 25 29C25 29.2652 24.8947 29.5196 24.7071 29.7071C24.5196 29.8947 24.2652 30 24 30Z" fill="#282828"/>
<path d="M30 29C28.8133 29 27.6533 28.6481 26.6666 27.9888C25.6799 27.3295 24.9109 26.3925 24.4567 25.2961C24.0026 24.1998 23.8838 22.9934 24.1153 21.8295C24.3468 20.6656 24.9183 19.5965 25.7574 18.7574C26.5965 17.9183 27.6656 17.3468 28.8295 17.1153C29.9934 16.8838 31.1998 17.0026 32.2961 17.4567C33.3925 17.9109 34.3295 18.6799 34.9888 19.6666C35.6481 20.6533 36 21.8133 36 23C36 24.5913 35.3679 26.1174 34.2427 27.2427C33.1174 28.3679 31.5913 29 30 29ZM30 19C29.2089 19 28.4355 19.2346 27.7777 19.6741C27.1199 20.1137 26.6072 20.7384 26.3045 21.4693C26.0017 22.2002 25.9225 23.0045 26.0769 23.7804C26.2312 24.5563 26.6122 25.269 27.1716 25.8284C27.731 26.3879 28.4437 26.7688 29.2197 26.9232C29.9956 27.0775 30.7998 26.9983 31.5308 26.6955C32.2617 26.3928 32.8864 25.8801 33.3259 25.2223C33.7654 24.5645 34 23.7911 34 23C34 21.9392 33.5786 20.9217 32.8284 20.1716C32.0783 19.4214 31.0609 19 30 19Z" fill="#282828"/>
<path d="M47 38H13C12.7348 38 12.4804 37.8947 12.2929 37.7071C12.1054 37.5196 12 37.2652 12 37V33C12 32.7348 12.1054 32.4804 12.2929 32.2929C12.4804 32.1054 12.7348 32 13 32C13.2652 32 13.5196 32.1054 13.7071 32.2929C13.8947 32.4804 14 32.7348 14 33V36H46V33C46 32.7348 46.1054 32.4804 46.2929 32.2929C46.4804 32.1054 46.7348 32 47 32C47.2652 32 47.5196 32.1054 47.7071 32.2929C47.8947 32.4804 48 32.7348 48 33V37C48 37.2652 47.8947 37.5196 47.7071 37.7071C47.5196 37.8947 47.2652 38 47 38Z" fill="#282828"/>
<path d="M47 42H13C12.7348 42 12.4804 41.8947 12.2929 41.7071C12.1054 41.5196 12 41.2652 12 41V37C12 36.7348 12.1054 36.4804 12.2929 36.2929C12.4804 36.1054 12.7348 36 13 36C13.2652 36 13.5196 36.1054 13.7071 36.2929C13.8947 36.4804 14 36.7348 14 37V40H46V37C46 36.7348 46.1054 36.4804 46.2929 36.2929C46.4804 36.1054 46.7348 36 47 36C47.2652 36 47.5196 36.1054 47.7071 36.2929C47.8947 36.4804 48 36.7348 48 37V41C48 41.2652 47.8947 41.5196 47.7071 41.7071C47.5196 41.8947 47.2652 42 47 42Z" fill="#282828"/>
</svg>
