<svg width="63" height="46" viewBox="0 0 63 46" fill="none" xmlns="http://www.w3.org/2000/svg">
<path d="M61.5948 46H1.40515C1.22061 46 1.03787 45.9637 0.867367 45.893C0.696864 45.8223 0.541942 45.7186 0.411453 45.588C0.280962 45.4573 0.177462 45.3021 0.106863 45.1314C0.0362646 44.9606 -4.79518e-05 44.7776 4.75235e-08 44.5928V1.40718C-4.79518e-05 1.22237 0.0362646 1.03937 0.106863 0.868619C0.177462 0.69787 0.280962 0.542725 0.411453 0.412047C0.541942 0.281368 0.696864 0.177718 0.867367 0.107017C1.03787 0.0363168 1.22061 -4.8021e-05 1.40515 4.75922e-08H61.5948C61.7794 -4.8021e-05 61.9621 0.0363168 62.1326 0.107017C62.3031 0.177718 62.4581 0.281368 62.5885 0.412047C62.719 0.542725 62.8225 0.69787 62.8931 0.868619C62.9637 1.03937 63 1.22237 63 1.40718V44.5928C63 44.7776 62.9637 44.9606 62.8931 45.1314C62.8225 45.3021 62.719 45.4573 62.5885 45.588C62.458 45.7187 62.3031 45.8223 62.1326 45.893C61.9621 45.9637 61.7793 46.0001 61.5948 46ZM2.81025 43.1856H60.1896V2.81436H2.8103L2.81025 43.1856Z" fill="#FDBF31"/>
<path d="M61.5948 22.4448H1.40515C1.22061 22.4449 1.03787 22.4085 0.867367 22.3378C0.696864 22.2671 0.541942 22.1635 0.411453 22.0328C0.280962 21.9021 0.177462 21.747 0.106863 21.5762C0.0362646 21.4055 -4.79518e-05 21.2224 4.75235e-08 21.0376V12.0298C-4.79518e-05 11.8449 0.0362646 11.6619 0.106863 11.4912C0.177462 11.3204 0.280962 11.1653 0.411453 11.0346C0.541942 10.9039 0.696864 10.8003 0.867367 10.7296C1.03787 10.6589 1.22061 10.6225 1.40515 10.6226H61.5948C61.7794 10.6225 61.9621 10.6589 62.1326 10.7296C62.3031 10.8003 62.4581 10.9039 62.5885 11.0346C62.719 11.1653 62.8225 11.3204 62.8931 11.4912C62.9637 11.6619 63 11.8449 63 12.0298V21.0376C63 21.2225 62.9637 21.4055 62.8931 21.5762C62.8225 21.747 62.719 21.9021 62.5885 22.0328C62.458 22.1635 62.3031 22.2671 62.1326 22.3378C61.9621 22.4085 61.7793 22.4449 61.5948 22.4448ZM2.81025 19.6305H60.1896V13.4369H2.8103L2.81025 19.6305Z" fill="#FDBF31"/>
</svg>
