<svg width="57" height="63" viewBox="0 0 57 63" fill="none" xmlns="http://www.w3.org/2000/svg">
<path d="M52.9286 13.2102C50.6832 13.2102 48.8571 15.0332 48.8571 17.2747V30.1327L46.7329 32.8325C46.4133 31.4892 45.2091 30.4842 43.7679 30.4842H43.6345C42.7907 30.4842 41.9774 30.8378 41.4024 31.4526L28.8522 44.8775C28.7199 45.0188 28.615 45.1783 28.501 45.3317C28.387 45.1783 28.2822 45.0188 28.1499 44.8775L15.5976 31.4536C15.0226 30.8378 14.2093 30.4842 13.3655 30.4842H13.2321C11.7909 30.4842 10.5867 31.4892 10.2681 32.8325L8.14286 30.1327V17.2747C8.14286 15.0332 6.31682 13.2102 4.07143 13.2102C1.82604 13.2102 0 15.0332 0 17.2747V34.5487C0 34.7184 0.0427502 34.8861 0.124179 35.0354L6.23132 46.2127C6.27814 46.2981 6.33718 46.3763 6.40538 46.4454L14.3732 54.3996C14.9503 54.9747 15.2679 55.7398 15.2679 56.5548V61.9839C15.2679 62.5458 15.7228 63 16.2857 63H40.7143C41.2772 63 41.7321 62.5458 41.7321 61.9839V56.5548C41.7321 55.7398 42.0497 54.9737 42.6268 54.3986L50.5946 46.4444C50.6628 46.3763 50.7219 46.2971 50.7687 46.2117L56.8758 35.0344C56.9573 34.8861 57 34.7184 57 34.5487V17.2747C57 15.0332 55.174 13.2102 52.9286 13.2102ZM15.8124 52.9618L7.94743 45.1102L2.03571 34.2896V17.2747C2.03571 16.1539 2.94873 15.2425 4.07143 15.2425C5.19413 15.2425 6.10714 16.1539 6.10714 17.2747V30.4842C6.10714 30.7118 6.18348 30.9323 6.32496 31.1122L17.5214 45.3378L19.1215 44.0819L12.2143 35.3057V33.5326C12.2143 32.9717 12.6703 32.5165 13.2321 32.5165H13.3655C13.6464 32.5165 13.9172 32.6343 14.1085 32.8396L26.6607 46.2645C27.191 46.8305 27.4821 47.5692 27.4821 48.3435V60.9678H17.3036V56.5548C17.3036 55.1972 16.7733 53.921 15.8124 52.9618ZM54.9643 34.2896L49.0516 45.1102L41.1866 52.9618C40.2267 53.921 39.6964 55.1972 39.6964 56.5548V60.9678H29.5179V48.3435C29.5179 47.5692 29.809 46.8305 30.3403 46.2645L42.8915 32.8386C43.0828 32.6343 43.3536 32.5165 43.6345 32.5165H43.7679C44.3297 32.5165 44.7857 32.9717 44.7857 33.5326V35.3057L37.8785 44.0819L39.4786 45.3378L50.675 31.1122C50.8165 30.9323 50.8929 30.7118 50.8929 30.4842V17.2747C50.8929 16.1539 51.8059 15.2425 52.9286 15.2425C54.0513 15.2425 54.9643 16.1539 54.9643 17.2747V34.2896Z" fill="#FDBF31"/>
<path d="M21.375 27.7001V31.5004H19.3393V33.5326H23.4107V36.5809C23.4107 37.1429 23.8657 37.5971 24.4286 37.5971H25.4464V38.6132C25.4464 40.2938 26.8165 41.6615 28.5 41.6615C30.1835 41.6615 31.5536 40.2938 31.5536 38.6132V37.5971H32.5714C33.1343 37.5971 33.5893 37.1429 33.5893 36.5809V33.5326H37.6607V31.5004H35.625V27.6991C35.625 25.7989 36.3945 23.9608 37.735 22.6571C40.3122 20.1503 41.7321 16.7951 41.7321 13.2102C41.7321 9.58677 40.2919 6.20615 37.676 3.69227C35.0621 1.18043 31.6136 -0.134427 27.9839 0.0108774C21.1328 0.27202 15.4297 6.05373 15.2719 12.9013C15.1874 16.5655 16.5789 20.004 19.1907 22.5829C20.5984 23.975 21.375 25.7918 21.375 27.7001ZM29.5179 38.6132C29.5179 39.1741 29.0619 39.6293 28.5 39.6293C27.9381 39.6293 27.4821 39.1741 27.4821 38.6132V37.5971H29.5179V38.6132ZM31.5536 35.5648H25.4464V33.5326H31.5536V35.5648ZM23.4107 31.5004V29.4681H33.5893V31.5004H23.4107ZM28.0603 2.04108C31.1403 1.93947 34.0514 3.03078 36.2642 5.1565C38.2307 7.04546 39.4074 9.51564 39.6455 12.1941H35.625V14.2264H39.6466C39.4084 16.8723 38.2501 19.3202 36.3151 21.201C34.6448 22.8247 33.6717 25.0846 33.6025 27.4359H23.3975C23.3283 25.0785 22.3552 22.8512 20.6208 21.138C18.7194 19.2592 17.5876 16.8408 17.3545 14.2264H21.375V12.1941H17.3616C17.8756 6.73656 22.5181 2.25243 28.0603 2.04108Z" fill="#FDBF31"/>
<path d="M28.5 18.2908C27.3773 18.2908 26.4643 17.3794 26.4643 16.2586H24.4286C24.4286 18.1476 25.7304 19.7246 27.4821 20.1788V22.3553H29.5179V20.1788C31.2696 19.7246 32.5714 18.1476 32.5714 16.2586C32.5714 14.017 30.7454 12.1941 28.5 12.1941C27.3773 12.1941 26.4643 11.2827 26.4643 10.1619C26.4643 9.04111 27.3773 8.12966 28.5 8.12966C29.6227 8.12966 30.5357 9.04111 30.5357 10.1619H32.5714C32.5714 8.27293 31.2696 6.69591 29.5179 6.24171V4.06519H27.4821V6.24171C25.7304 6.69591 24.4286 8.27293 24.4286 10.1619C24.4286 12.4034 26.2546 14.2264 28.5 14.2264C29.6227 14.2264 30.5357 15.1378 30.5357 16.2586C30.5357 17.3794 29.6227 18.2908 28.5 18.2908Z" fill="#FDBF31"/>
</svg>
