<svg width="63" height="63" viewBox="0 0 63 63" fill="none" xmlns="http://www.w3.org/2000/svg">
<path d="M2.1 24.15H4.2V59.85C4.20091 60.6852 4.53308 61.4858 5.12362 62.0764C5.71416 62.6669 6.51485 62.9991 7.35 63H14.7V60.9H7.35C7.07163 60.8996 6.80477 60.7889 6.60794 60.5921C6.4111 60.3952 6.30036 60.1284 6.3 59.85V24.15H14.7V27.0693C14.2245 27.4932 13.8892 28.0517 13.7388 28.6707C13.5883 29.2897 13.6298 29.9398 13.8577 30.5347C14.0857 31.1295 14.4892 31.6409 15.0148 32.0009C15.5403 32.3609 16.163 32.5524 16.8 32.55H29.4C30.037 32.5524 30.6597 32.3609 31.1852 32.0009C31.7108 31.6409 32.1143 31.1295 32.3423 30.5347C32.5702 29.9398 32.6117 29.2897 32.4612 28.6707C32.3108 28.0517 31.9755 27.4932 31.5 27.0693V24.15H34.65V22.05H2.1V19.95H34.65V17.85H2.1C1.54322 17.8506 1.0094 18.072 0.61569 18.4657C0.221984 18.8594 0.000555951 19.3932 0 19.95V22.05C0.000555951 22.6068 0.221984 23.1406 0.61569 23.5343C1.0094 23.928 1.54322 24.1494 2.1 24.15ZM29.4 30.45H16.8C16.5215 30.45 16.2544 30.3394 16.0575 30.1425C15.8606 29.9455 15.75 29.6785 15.75 29.4C15.75 29.1215 15.8606 28.8544 16.0575 28.6575C16.2544 28.4606 16.5215 28.35 16.8 28.35H29.4C29.6785 28.35 29.9455 28.4606 30.1425 28.6575C30.3394 28.8544 30.45 29.1215 30.45 29.4C30.45 29.6785 30.3394 29.9455 30.1425 30.1425C29.9455 30.3394 29.6785 30.45 29.4 30.45ZM29.4 26.25H16.8V24.15H29.4V26.25Z" fill="#FDBF31"/>
<path d="M43.05 46.2V3.15C43.05 2.31457 42.7181 1.51335 42.1274 0.922614C41.5366 0.331874 40.7354 0 39.9 0C39.0646 0 38.2634 0.331874 37.6726 0.922614C37.0819 1.51335 36.75 2.31457 36.75 3.15V42H35.3021C34.6649 41.9989 34.0424 42.1922 33.518 42.5542L18.1653 53.1086C17.7442 53.3981 17.3998 53.7858 17.162 54.2381C16.9241 54.6904 16.7999 55.1938 16.8 55.7049V59.85C16.8009 60.6852 17.1331 61.4858 17.7236 62.0764C18.3142 62.6669 19.1148 62.9991 19.95 63H37.8V60.9H19.95C19.6716 60.8996 19.4048 60.7889 19.2079 60.5921C19.0111 60.3952 18.9004 60.1284 18.9 59.85V55.7049C18.9 55.5345 18.9413 55.3668 19.0206 55.216C19.0998 55.0653 19.2145 54.936 19.3548 54.8394L34.7084 44.284C34.883 44.1637 35.0901 44.0995 35.3021 44.1H40.95V46.2H43.05ZM38.85 3.15C38.85 2.87152 38.9606 2.60445 39.1575 2.40754C39.3545 2.21062 39.6215 2.1 39.9 2.1C40.1785 2.1 40.4455 2.21062 40.6425 2.40754C40.8394 2.60445 40.95 2.87152 40.95 3.15V36.75H38.85V3.15ZM38.85 42V38.85H40.95V42H38.85Z" fill="#FDBF31"/>
<path d="M57.9294 46.3107C57.756 45.9611 57.4881 45.667 57.1561 45.4619C56.8241 45.2567 56.4412 45.1487 56.0509 45.15H54.6V3.15C54.6 2.31457 54.2681 1.51335 53.6774 0.922614C53.0866 0.331874 52.2854 0 51.45 0C50.6146 0 49.8134 0.331874 49.2226 0.922614C48.6319 1.51335 48.3 2.31457 48.3 3.15V45.15H46.8491C46.4588 45.1487 46.0759 45.2567 45.7439 45.4619C45.4119 45.667 45.144 45.9611 44.9706 46.3107L40.1215 56.0089C39.9762 56.3005 39.9003 56.6218 39.9 56.9476V59.85C39.9009 60.6852 40.2331 61.4858 40.8236 62.0764C41.4142 62.6669 42.2148 62.9991 43.05 63H59.85C60.6852 62.9991 61.4858 62.6669 62.0764 62.0764C62.6669 61.4858 62.9991 60.6852 63 59.85V56.9476C62.9997 56.6218 62.9238 56.3005 62.7785 56.0089L57.9294 46.3107ZM50.4 45.15H52.5V49.35C52.5 49.6285 52.3894 49.8955 52.1925 50.0925C51.9955 50.2894 51.7285 50.4 51.45 50.4C51.1715 50.4 50.9044 50.2894 50.7075 50.0925C50.5106 49.8955 50.4 49.6285 50.4 49.35V45.15ZM50.4 3.15C50.4 2.87152 50.5106 2.60445 50.7075 2.40754C50.9044 2.21062 51.1715 2.1 51.45 2.1C51.7285 2.1 51.9955 2.21062 52.1925 2.40754C52.3894 2.60445 52.5 2.87152 52.5 3.15V43.05H50.4V3.15ZM60.9 59.85C60.8996 60.1284 60.7889 60.3952 60.5921 60.5921C60.3952 60.7889 60.1284 60.8996 59.85 60.9H58.8V56.7H56.7V60.9H54.6V56.7H52.5V60.9H50.4V56.7H48.3V60.9H46.2V56.7H44.1V60.9H43.05C42.7716 60.8996 42.5048 60.7889 42.3079 60.5921C42.1111 60.3952 42.0004 60.1284 42 59.85V56.9481L46.8491 47.25H48.3V49.35C48.3 50.1854 48.6319 50.9866 49.2226 51.5774C49.8134 52.1681 50.6146 52.5 51.45 52.5C52.2854 52.5 53.0866 52.1681 53.6774 51.5774C54.2681 50.9866 54.6 50.1854 54.6 49.35V47.25H56.0509L60.9 56.9476V59.85Z" fill="#FDBF31"/>
</svg>
