<svg width="52" height="41" viewBox="0 0 52 41" fill="none" xmlns="http://www.w3.org/2000/svg">
<path d="M26 0L0 15.703L1.5912 18.2963L26 3.5465L50.4088 18.2963L52 15.703L26 0Z" fill="#282828"/>
<path d="M34.8088 37.966V26.3015H33.072V13.817H18.9384V26.3015H17.1912V37.966H8.5696V19.7107H5.5016V41H20.2488V33.8045H31.7512V41H46.4984V19.7107H43.4408V37.966H34.8088ZM30.004 26.3015H27.5288V16.8407H30.004V26.3015ZM21.996 16.851H24.4712V26.3117H21.996V16.851ZM20.2488 30.7705V29.3355H31.7512V30.7705H20.2488Z" fill="#282828"/>
</svg>
