<svg width="24" height="27" viewBox="0 0 24 27" fill="none" xmlns="http://www.w3.org/2000/svg">
<path fill-rule="evenodd" clip-rule="evenodd" d="M6.318 16.706C6.84961 15.3619 7.60012 13.8303 7.69393 15.2056C7.7252 15.862 7.06851 16.2996 7.19359 16.3934C7.28739 16.4247 7.50631 16.237 8.35063 16.2058C9.00732 16.1745 8.97605 16.4559 8.63205 16.7997C8.44443 16.9873 8.10044 17.0185 7.47502 16.956C8.16299 17.4561 9.06985 18.5814 9.28875 19.4254C11.1337 19.863 12.2595 21.6759 11.9781 23.4888C12.8224 24.6141 12.197 25.6769 11.1337 26.3645H1.75241C0.0324997 25.2393 -0.749279 22.3948 0.939363 20.9257C1.15826 19.988 1.75241 19.2066 2.50292 18.6752C3.25343 17.2686 4.72317 16.4247 6.318 16.706ZM8.3819 6.26595H22.8604V7.89134L21.2031 8.79781V22.9888C20.2962 22.3948 19.0766 22.5824 18.3574 23.3951C17.6069 24.239 17.6382 25.5518 18.4512 26.3645H12.0406C12.9475 25.5518 13.2289 24.3953 12.5722 23.3638C12.7286 21.4884 11.7279 19.7379 9.94544 19.0503L8.97604 11.3922H8.38188L8.3819 6.26595ZM8.85096 2.10869L9.19495 0.827134L9.66402 0.952195C9.85164 0.264525 10.5709 -0.141808 11.2588 0.0457316L21.078 2.64012C21.766 2.82771 22.2037 3.54657 22.0161 4.23424C23.267 4.57807 23.1419 4.73435 22.8604 5.82839L8.85096 2.10869ZM20.0148 23.2075C20.9216 23.2075 21.6409 23.9265 21.6409 24.8329C21.6409 25.7394 20.9216 26.4583 20.0148 26.4583C19.1079 26.4583 18.3887 25.7394 18.3887 24.8329C18.3887 23.9265 19.1079 23.2075 20.0148 23.2075Z" fill="#FDBF31"/>
</svg>
