<svg width="19" height="28" viewBox="0 0 19 28" fill="none" xmlns="http://www.w3.org/2000/svg">
<path d="M13.5319 0H5.46875V2.22543H13.5319V0Z" fill="#FDBF31"/>
<path d="M14.5593 1.65869V3.31686H4.44039V1.65869H0V28.0002H19V1.65869H14.5593ZM15.8793 22.7868H3.12041V21.6959H15.8793V22.7868ZM15.8793 16.1549H3.12041V15.064H15.8793V16.1549ZM15.8793 9.52298H3.12041V8.43208H15.8793V9.52298Z" fill="#FDBF31"/>
</svg>
