<svg width="31" height="29" viewBox="0 0 31 29" fill="none" xmlns="http://www.w3.org/2000/svg">
<path fill-rule="evenodd" clip-rule="evenodd" d="M25.6606 6.75627C24.9373 6.47909 24.1107 6.30586 23.3529 6.27121C23.0085 5.6129 22.4918 5.19713 21.8718 5.05854C20.7352 4.81601 19.943 4.64277 19.943 4.64277C20.3907 5.6822 20.6318 6.92951 20.6318 8.28076C20.6318 9.63202 20.3907 10.914 19.943 11.9188C19.943 11.9188 20.7007 11.7455 21.8718 11.503C22.5262 11.3644 23.0429 10.9486 23.3873 10.2903C23.4562 10.2903 23.5251 10.325 23.594 10.325C23.7662 10.3596 23.9384 10.3943 24.1107 10.4636C24.2829 10.4982 24.4206 10.6022 24.5929 10.6368C25.454 10.9833 26.5906 12.2652 26.7973 13.0968C26.8317 13.27 26.9351 13.4779 26.9695 13.6511C27.0039 13.8244 27.0384 14.0669 27.0728 14.2401V14.7945C27.0384 15.0024 27.0039 15.2103 26.9695 15.4182C26.9351 15.5914 26.8662 15.7646 26.8317 15.9032C26.7973 16.0072 26.7284 16.1458 26.6595 16.2843C26.4184 16.9773 25.2473 18.2246 24.1795 18.5018C23.9729 18.5364 23.7318 18.6404 23.5251 18.675C23.3529 18.675 23.2151 18.7097 23.0429 18.7443H8.09429C7.99096 18.7443 7.88763 18.779 7.81875 18.779C7.12987 18.8483 6.44099 19.0908 5.75212 19.5066C4.75325 20.1649 3.92659 21.2736 3.65104 22.1744C3.51327 22.5902 3.44439 23.0753 3.3755 23.491V24.2186C3.3755 24.2533 3.40994 24.5651 3.44438 24.7383C3.89215 27.4409 6.30322 29 8.36985 29C9.47205 29 10.5054 28.2724 10.5054 26.9904C10.5054 26.6786 10.4365 26.4707 10.2987 26.0896C10.1265 25.6738 9.54093 25.1541 9.1965 25.0848C8.98983 25.0502 8.74873 24.9809 8.54207 24.9462C8.40429 24.9462 8.26651 24.9462 8.16318 24.9116C7.57764 24.6691 7.37097 24.2533 7.37097 23.8375C7.37097 23.3178 7.7843 22.7981 8.43873 22.7288H23.3873C23.4218 22.7288 24.1107 22.6248 24.4895 22.5556C25.7295 22.2784 27.0384 21.724 28.2784 20.6153C29.6906 19.368 30.3105 17.9821 30.6894 16.7001C30.9305 15.8686 30.9994 15.2796 30.9994 14.4827C31.0339 11.7109 29.5528 8.21147 25.6606 6.75627ZM25.8673 7.93429C28.9328 9.38948 30.035 12.2306 30.035 14.5173C30.035 17.1505 28.5539 20.1995 25.0062 21.4468C24.6618 21.5508 23.6973 21.7933 23.2151 21.7933H8.47318C7.09542 21.8972 6.3721 22.9367 6.3721 23.9415C6.3721 24.2186 6.44099 24.4265 6.50987 24.7383C6.68209 25.2581 7.47431 25.951 7.99096 26.0203C8.23207 26.055 8.47318 26.055 8.71429 26.1242C9.23094 26.2282 9.50649 26.7133 9.50649 27.0944C9.50649 27.822 8.92094 28.0992 8.40428 28.0992C6.85431 28.0992 4.95991 26.9904 4.47769 24.8769C4.44325 24.669 4.37437 24.2186 4.37437 24.184V23.7336C4.44325 22.7981 4.7188 21.7933 5.71767 20.8925C6.30322 20.3381 6.99209 20.0609 7.61208 19.8877C7.7843 19.853 7.95652 19.853 8.16318 19.8184H23.1118C23.3873 19.7838 23.7318 19.7491 24.0418 19.6452C24.7651 19.4373 25.5573 19.0908 26.3151 18.4325C27.0384 17.7742 27.4861 16.9773 27.7273 16.319C27.7961 16.1111 27.865 15.8686 27.8995 15.6607C27.9684 15.3835 28.0028 15.1063 28.0372 14.8291V14.3094C28.0372 14.1015 27.9684 13.859 27.9339 13.6511C27.7961 12.8889 27.4517 12.0227 26.8317 11.2951C26.1773 10.4636 25.3506 9.97849 24.6273 9.66666C24.4551 9.59737 24.2484 9.52807 24.0418 9.49343C23.9384 9.45878 23.8007 9.45878 23.6629 9.42414C23.7318 9.11231 23.7662 8.76583 23.7662 8.38471C23.7662 8.03823 23.7318 7.69175 23.6629 7.41457C24.4207 7.41457 25.1784 7.62246 25.8673 7.93429ZM9.02428 8.28076C9.02428 9.38948 9.54093 10.2903 10.1954 10.2903C10.8498 10.2903 11.3665 9.38948 11.3665 8.28076C11.3665 7.17204 10.8498 6.27121 10.1954 6.27121C9.54093 6.27121 9.02428 7.17204 9.02428 8.28076ZM6.81988 13.0968C7.47431 13.0968 7.99096 12.1959 7.99096 11.0872C7.99096 9.97849 7.47431 9.07766 6.81988 9.07766H4.1677C4.1677 8.83513 4.13326 8.55794 4.13326 8.28076C4.13326 8.03823 4.13326 7.79569 4.1677 7.55316H6.81988C7.47431 7.55316 7.99096 6.65233 7.99096 5.54361C7.99096 4.43489 7.47431 3.53405 6.81988 3.53405H5.13212C5.92433 1.97491 7.06098 0.970127 8.36985 0.970127C10.712 0.970127 12.6064 4.227 12.6064 8.28076C12.6064 12.3345 10.712 15.5914 8.36985 15.5914C7.09543 15.5914 5.95878 14.6213 5.16657 13.0968H6.81988ZM1.99775 6.58303C1.44665 6.58303 0.998868 6.13262 0.998868 5.57826C0.998868 5.0239 1.44665 4.57348 1.99775 4.57348H6.3721C6.71654 4.57348 6.9921 5.0239 6.9921 5.57826C6.9921 6.13262 6.6821 6.58303 6.3721 6.58303H1.99775ZM3.40993 7.58781C3.40993 7.83034 3.3755 8.07288 3.3755 8.31541C3.3755 8.59259 3.37549 8.83512 3.40993 9.1123H2.03218C0.92998 9.1123 0.0344459 10.0131 0.0344459 11.1219C0.0344459 12.2306 0.92998 13.1314 2.03218 13.1314H4.30547C5.20101 15.2449 6.6821 16.6308 8.36985 16.6308H8.67984C9.02428 16.5962 14.1908 15.141 16.1197 14.6213C18.0141 14.1016 19.5985 11.6762 19.5985 8.31541C19.5985 4.9546 18.1519 2.59856 16.0508 2.00955C13.9153 1.42055 9.02428 0.0346475 8.67984 0H8.36985C6.6821 0 5.16657 1.42055 4.27103 3.56869H1.99775C0.895545 3.56869 0 4.46954 0 5.57826C0 6.68698 0.895545 7.58781 1.99775 7.58781H3.40993ZM6.40655 12.092H1.99775C1.44665 12.092 0.998868 11.6416 0.998868 11.0872C0.998868 10.5329 1.44665 10.0824 1.99775 10.0824H6.3721C6.71654 10.0824 6.9921 10.5329 6.9921 11.0872C7.02654 11.6416 6.71654 12.092 6.40655 12.092Z" fill="#FDBF31"/>
</svg>
