<svg width="20" height="20" viewBox="0 0 20 20" fill="none" xmlns="http://www.w3.org/2000/svg">
<path d="M4.26923 9.60371C4.77746 9.55262 5.89563 9.55262 5.89563 8.8355C5.89563 7.86263 4.47265 6.58229 2.18562 5.19945C1.47429 4.7384 -2.67029e-05 4.0216 -2.67029e-05 3.04841C-2.67029e-05 2.28021 0.559219 1.71698 1.72808 1.87056C2.84625 2.02414 4.57436 2.79234 6.86108 4.7384C9.24982 6.73587 11.4858 10.0648 11.4858 13.3422C11.4858 16.6711 9.24982 20 5.6412 20C2.74454 20 0.254087 17.7979 0.254087 14.7762C0.254409 12.4715 1.82979 9.80869 4.26923 9.60371Z" fill="#282828"/>
<path d="M11.4137 8.16361C11.8311 7.94375 12.289 7.79988 12.7831 7.75849C13.2913 7.70741 14.4095 7.70741 14.4095 6.99029C14.4095 6.01742 12.9865 4.73708 10.6995 3.35424C9.98781 2.89319 8.51413 2.17639 8.51413 1.2032C8.51413 0.434992 9.07338 -0.12823 10.2422 0.0253466C11.3604 0.178923 13.0885 0.947129 15.3752 2.89319C17.7637 4.89065 20 8.21955 20 11.4974C20 14.8262 17.764 18.1551 14.1554 18.1551C13.307 18.1551 12.494 17.965 11.7679 17.622C12.4799 16.3248 12.8594 14.824 12.8594 13.3425C12.8591 11.5132 12.2745 9.73915 11.4137 8.16361Z" fill="#282828"/>
</svg>
