<svg width="49" height="74" viewBox="0 0 49 74" fill="none" xmlns="http://www.w3.org/2000/svg">
<path d="M46.9096 0H2.09044C0.919795 0 0 0.856842 0 1.94737V72.0526C0 73.1432 0.919795 74 2.09044 74H46.9096C48.0802 74 49 73.1432 49 72.0526V1.94737C49 0.856842 48.0802 0 46.9096 0ZM44.5683 69.7937H10.285L26.6741 61.9263C26.7577 61.9263 26.7577 61.8484 26.8413 61.8484C27.0921 61.6926 27.343 61.4589 27.5102 61.2253C27.5939 61.0695 27.6775 60.9137 27.7611 60.7579C27.8447 60.5242 27.8447 60.3684 27.8447 60.2126V13.7874C27.8447 13.0863 27.4266 12.3853 26.6741 11.9958L10.2014 4.20632H44.4846V69.7937H44.5683ZM20.7372 38.2463V35.6758C20.7372 34.8189 21.4898 34.1958 22.3259 34.1958C23.2457 34.1958 23.9147 34.8968 23.9147 35.6758V38.2463C23.9147 39.1032 23.1621 39.7263 22.3259 39.7263C21.4061 39.8042 20.7372 39.1032 20.7372 38.2463Z" fill="white"/>
</svg>
