<svg width="152" height="30" viewBox="0 0 152 30" fill="none" xmlns="http://www.w3.org/2000/svg">
<path d="M49.0112 5.20911C51.3334 5.20911 53.1295 5.70002 54.3994 6.68184C55.6692 7.64549 56.3044 9.09095 56.3044 11.0182C56.3044 13.0728 55.642 14.6 54.3178 15.6C52.9934 16.6 51.2336 17.1 49.0384 17.1H46.6708V24H44.0856V5.20911H49.0112ZM48.9296 15.0546C50.4354 15.0546 51.5783 14.7637 52.3584 14.1818C53.1567 13.6 53.5558 12.5546 53.5558 11.0455C53.5558 9.7 53.1567 8.72729 52.3584 8.12729C51.5783 7.52729 50.4535 7.22729 48.984 7.22729H46.6708V15.0546H48.9296ZM65.4622 9.30002C65.9705 9.30002 66.4419 9.35457 66.8773 9.46366L66.4147 11.9182C65.9792 11.8091 65.5623 11.7546 65.1628 11.7546C64.2741 11.7546 63.5573 12.0818 63.013 12.7364C62.4687 13.3909 62.0426 14.4091 61.734 15.7909V24H59.2303V9.62729H61.3802L61.6251 12.5455C62.0061 11.4727 62.5231 10.6637 63.1763 10.1182C63.8294 9.57275 64.5914 9.30002 65.4622 9.30002ZM72.2312 9.62729V24H69.7276V9.62729H72.2312ZM70.9522 2.72729C71.4785 2.72729 71.9047 2.89093 72.2312 3.2182C72.5578 3.54548 72.7211 3.95457 72.7211 4.44548C72.7211 4.93639 72.5578 5.34548 72.2312 5.67275C71.9047 5.98186 71.4785 6.13639 70.9522 6.13639C70.4444 6.13639 70.027 5.98186 69.7004 5.67275C69.3738 5.34548 69.2106 4.93639 69.2106 4.44548C69.2106 3.95457 69.3738 3.54548 69.7004 3.2182C70.027 2.89093 70.4444 2.72729 70.9522 2.72729ZM88.5113 3.84548V24H86.307L86.0621 22.0091C85.5902 22.7364 85.0008 23.3091 84.2933 23.7273C83.5857 24.1273 82.7965 24.3273 81.9257 24.3273C80.22 24.3273 78.8865 23.6546 77.9253 22.3091C76.9816 20.9636 76.5103 19.1546 76.5103 16.8818C76.5103 15.4091 76.7367 14.1 77.1906 12.9546C77.644 11.8091 78.2971 10.9182 79.1499 10.2818C80.0023 9.62729 81.0005 9.30002 82.1434 9.30002C83.6129 9.30002 84.9007 9.89091 86.0077 11.0727V3.54548L88.5113 3.84548ZM82.47 22.3364C83.2319 22.3364 83.8851 22.1636 84.4293 21.8182C84.9736 21.4545 85.4994 20.9182 86.0077 20.2091V13.1727C85.5358 12.5546 85.028 12.0909 84.4838 11.7818C83.9575 11.4546 83.3588 11.2909 82.6877 11.2909C81.5806 11.2909 80.7191 11.7546 80.1024 12.6818C79.5037 13.6091 79.2044 14.9909 79.2044 16.8273C79.2044 18.6818 79.4852 20.0636 80.048 20.9727C80.6102 21.8819 81.4174 22.3364 82.47 22.3364ZM104.503 16.3909C104.503 16.8091 104.485 17.2364 104.449 17.6727H95.3049C95.4137 19.2546 95.8132 20.4182 96.5022 21.1637C97.1918 21.9091 98.0806 22.2818 99.1691 22.2818C99.8587 22.2818 100.494 22.1819 101.074 21.9818C101.655 21.7818 102.263 21.4637 102.897 21.0273L103.986 22.5273C102.462 23.7273 100.793 24.3273 98.9787 24.3273C96.9834 24.3273 95.423 23.6727 94.298 22.3637C93.1915 21.0546 92.638 19.2546 92.638 16.9637C92.638 15.4728 92.8742 14.1546 93.3455 13.0091C93.8353 11.8455 94.5249 10.9364 95.4137 10.2818C96.321 9.62729 97.3823 9.30002 98.5977 9.30002C100.503 9.30002 101.963 9.92729 102.979 11.1818C103.995 12.4364 104.503 14.1727 104.503 16.3909ZM102.027 15.6546C102.027 14.2364 101.746 13.1546 101.183 12.4091C100.621 11.6636 99.7771 11.2909 98.6521 11.2909C96.6024 11.2909 95.4866 12.8 95.3049 15.8182H102.027V15.6546ZM116.911 14.0727C118.198 14.2909 119.242 14.7455 120.04 15.4364C120.838 16.1273 121.238 17.2 121.238 18.6546C121.238 22.2182 118.761 24 113.808 24H108.638V5.20911H113.074C115.45 5.20911 117.264 5.60004 118.516 6.38184C119.786 7.16364 120.421 8.35459 120.421 9.95457C120.421 11.0455 120.076 11.9546 119.387 12.6818C118.715 13.4091 117.89 13.8727 116.911 14.0727ZM111.223 7.25457V13.1727H114.053C115.142 13.1727 116.031 12.9091 116.72 12.3818C117.428 11.8545 117.781 11.1091 117.781 10.1455C117.781 9.05457 117.409 8.30004 116.666 7.88184C115.94 7.46364 114.833 7.25457 113.346 7.25457H111.223ZM113.808 21.9273C115.332 21.9273 116.493 21.7 117.292 21.2455C118.108 20.7909 118.516 19.9273 118.516 18.6546C118.516 17.4182 118.126 16.5273 117.346 15.9818C116.566 15.4364 115.55 15.1637 114.298 15.1637H111.223V21.9273H113.808ZM135.725 24H133.575L133.385 21.7637C132.841 22.6545 132.215 23.3091 131.507 23.7273C130.8 24.1273 129.938 24.3273 128.922 24.3273C127.67 24.3273 126.691 23.9455 125.983 23.1818C125.275 22.4182 124.922 21.3364 124.922 19.9364V9.62729H127.425V19.6637C127.425 20.6455 127.598 21.3455 127.942 21.7637C128.287 22.1636 128.85 22.3637 129.63 22.3637C131.027 22.3637 132.224 21.5364 133.222 19.8818V9.62729H135.725V24ZM152 3.84548V24H149.796L149.551 22.0091C149.079 22.7364 148.489 23.3091 147.782 23.7273C147.074 24.1273 146.285 24.3273 145.414 24.3273C143.709 24.3273 142.376 23.6546 141.414 22.3091C140.471 20.9636 139.999 19.1546 139.999 16.8818C139.999 15.4091 140.226 14.1 140.679 12.9546C141.133 11.8091 141.786 10.9182 142.639 10.2818C143.491 9.62729 144.489 9.30002 145.632 9.30002C147.102 9.30002 148.39 9.89091 149.496 11.0727V3.54548L152 3.84548ZM145.959 22.3364C146.721 22.3364 147.374 22.1636 147.918 21.8182C148.462 21.4545 148.989 20.9182 149.496 20.2091V13.1727C149.024 12.5546 148.517 12.0909 147.972 11.7818C147.446 11.4546 146.847 11.2909 146.176 11.2909C145.07 11.2909 144.208 11.7546 143.591 12.6818C142.992 13.6091 142.693 14.9909 142.693 16.8273C142.693 18.6818 142.974 20.0636 143.537 20.9727C144.099 21.8819 144.907 22.3364 145.959 22.3364Z" fill="white"/>
<path d="M27.2133 0H2.72133C1.21838 0 0 1.22104 0 2.72727V27.2727C0 28.779 1.21838 30 2.72133 30H27.2133C28.7163 30 29.9347 28.779 29.9347 27.2727V2.72727C29.9347 1.22104 28.7163 0 27.2133 0Z" fill="#FDBF31"/>
<path d="M20.6821 0H18.5051V19.0909H20.6821V0Z" fill="black"/>
<path d="M0 11.4547L0 13.6365H13.0624V11.4547H0Z" fill="black"/>
<path d="M20.6821 24.5454H18.5051V30H20.6821V24.5454Z" fill="black"/>
<path d="M19.5936 17.4546L20.6821 19.091L15.2395 22.091L14.151 20.4546L19.5936 17.4546Z" fill="black"/>
<path d="M72.9317 2.72729H69.1218V6.54548H72.9317V2.72729Z" fill="#FDBF31"/>
</svg>
