<svg width="64" height="74" viewBox="0 0 64 74" fill="none" xmlns="http://www.w3.org/2000/svg">
<path fill-rule="evenodd" clip-rule="evenodd" d="M17.5448 46.7241C19.021 42.965 21.1052 38.6812 21.3657 42.5278C21.4525 44.3637 19.6289 45.5876 19.9763 45.8499C20.2367 45.9374 20.8447 45.4126 23.1893 45.3251C25.0129 45.2376 24.9261 46.0247 23.9708 46.9862C23.4498 47.5109 22.4945 47.5983 20.7578 47.4234C22.6682 48.8222 25.1865 51.9695 25.7944 54.3299C30.9179 55.5538 34.0441 60.6243 33.2625 65.6948C35.6072 68.842 33.8704 71.8144 30.9179 73.7376H4.86637C0.09025 70.5905 -2.08071 62.635 2.60857 58.5262C3.21644 55.9034 4.86637 53.7179 6.95049 52.2317C9.03461 48.2977 13.116 45.9373 17.5448 46.7241ZM23.2761 17.5249H63.4824V22.0709L58.8799 24.6062V64.2961C56.3616 62.635 52.9749 63.1595 50.9776 65.4325C48.8935 67.7929 48.9803 71.4647 51.2381 73.7376H33.4362C35.9545 71.4647 36.7361 68.2301 34.9124 65.3451C35.3467 60.0998 32.5678 55.2041 27.618 53.2808L24.926 31.8623H23.2761L23.2761 17.5249ZM24.5787 5.89769L25.5339 2.31337L26.8365 2.66315C27.3575 0.739838 29.3548 -0.396617 31.2653 0.127905L58.5326 7.38403C60.443 7.90869 61.6587 9.91922 61.1377 11.8425C64.6113 12.8042 64.2639 13.2413 63.4824 16.3011L24.5787 5.89769ZM55.58 64.908C58.0984 64.908 60.0957 66.9187 60.0957 69.454C60.0957 71.9893 58.0984 74 55.58 74C53.0617 74 51.0645 71.9893 51.0645 69.454C51.0645 66.9187 53.0617 64.908 55.58 64.908Z" fill="white"/>
</svg>
