{
    "key": "group_5bbcf2256c91e",
    "title": "Post",
    "fields": [
        {
            "key": "field_5bbcf23a7ab3c",
            "label": "Content",
            "name": "content",
            "type": "flexible_content",
            "instructions": "",
            "required": 0,
            "conditional_logic": 0,
            "wrapper": {
                "width": "",
                "class": "",
                "id": ""
            },
            "layouts": {
                "5bbcf245f36f5": {
                    "key": "5bbcf245f36f5",
                    "name": "content_editor",
                    "label": "Content editor",
                    "display": "block",
                    "sub_fields": [
                        {
                            "key": "field_5bbcf2527ab3d",
                            "label": "Text",
                            "name": "text",
                            "type": "wysiwyg",
                            "instructions": "",
                            "required": 0,
                            "conditional_logic": 0,
                            "wrapper": {
                                "width": "",
                                "class": "",
                                "id": ""
                            },
                            "default_value": "",
                            "tabs": "all",
                            "toolbar": "full",
                            "media_upload": 1,
                            "delay": 0
                        }
                    ],
                    "min": "",
                    "max": ""
                },
                "5bbcf2be7ab3e": {
                    "key": "5bbcf2be7ab3e",
                    "name": "images_block",
                    "label": "Images block",
                    "display": "block",
                    "sub_fields": [
                        {
                            "key": "field_5bbcf31c7ab41",
                            "label": "Images",
                            "name": "images",
                            "type": "gallery",
                            "instructions": "",
                            "required": 0,
                            "conditional_logic": 0,
                            "wrapper": {
                                "width": "",
                                "class": "",
                                "id": ""
                            },
                            "min": "",
                            "max": "",
                            "insert": "append",
                            "library": "all",
                            "min_width": "",
                            "min_height": "",
                            "min_size": "",
                            "max_width": "",
                            "max_height": "",
                            "max_size": "",
                            "mime_types": "",
                            "return_format": "array",
                            "preview_size": "medium"
                        }
                    ],
                    "min": "",
                    "max": ""
                },
                "5bbcf3b67ab42": {
                    "key": "5bbcf3b67ab42",
                    "name": "form_block",
                    "label": "Form block",
                    "display": "block",
                    "sub_fields": [
                        {
                            "key": "field_5bbcf3c77ab43",
                            "label": "Title",
                            "name": "title",
                            "type": "text",
                            "instructions": "",
                            "required": 0,
                            "conditional_logic": 0,
                            "wrapper": {
                                "width": "",
                                "class": "",
                                "id": ""
                            },
                            "default_value": "",
                            "placeholder": "",
                            "prepend": "",
                            "append": "",
                            "maxlength": ""
                        },
                        {
                            "key": "field_5bbcf3d17ab44",
                            "label": "Form shortcode",
                            "name": "form_shortcode",
                            "type": "text",
                            "instructions": "",
                            "required": 0,
                            "conditional_logic": 0,
                            "wrapper": {
                                "width": "",
                                "class": "",
                                "id": ""
                            },
                            "default_value": "",
                            "placeholder": "",
                            "prepend": "",
                            "append": "",
                            "maxlength": ""
                        }
                    ],
                    "min": "",
                    "max": ""
                }
            },
            "button_label": "Add Content",
            "min": "",
            "max": ""
        }
    ],
    "location": [
        [
            {
                "param": "post_type",
                "operator": "==",
                "value": "post"
            }
        ]
    ],
    "menu_order": 0,
    "position": "normal",
    "style": "default",
    "label_placement": "top",
    "instruction_placement": "label",
    "hide_on_screen": [
        "the_content"
    ],
    "active": 1,
    "description": "",
    "modified": 1592943986
}